{
	"documents": [{
			"DocumentId": 12313,
			"DocumentDate": "09.09.2023",
			"LastName": "Korgi",
			"FirstName": "Dog",
			"MiddleName": "Dog",
			"Company": "IBM",
			"CountActions": 2500,
			"Cost": "28.13",
			"TransactionDate": "09.09.2023 18:05:15"
		}
	]
}
